Lab 8: Data Science to Solve Problems and Answer Questions, part 1
…
Because American League pitchers are facing 9 professional hitters as opposed to 8 and a pitcher in the National League, it may alter statistics of pitchers from either side. If an American league pitcher gave up 3 runs per game and a National League pitcher gave up 2 runs per game, it becomes more difficult to determine the better player becasue of different circumstances and environment.

How does the designated hitter affect game strategy?

Due to the poor hitting of pitchers, they will often be asked to perform a sacrifice bunt. The idea is that the pitcher can essentially give himself up as an out by bunting the ball a few feet in order to advance the runners on base. It is a strategic choice to trade what would have already been a likely out from the pitcher into moving your runners closer to home. This is one obvious tactical difference, but there may be other hidden strategies that teams can take advantage of.

Is the American League more friendly to heavier players?

The traditional designated hitter is a player that provides great value at the plate, but their defense is either severely lacking or not needed on the team. The stereotypical body type of this individual is an overweight player who doesnt want to worry about being a detriment on the field. We can analyze height and weight data of players in both leagues to determine if the American League teams have a higher likelihood of signing or trading for heavier players, as they have a role that fits their skillset.

5. Individual visualizations of the East Africa Lake Data. Plots for Challa, Tanganyika, Malawi, CRU and MAM rainfall, and VOI rainfall.

Challa Data Set

## # A tibble: 3,056 x 5
##     year number thickness dark.layer light.layer
##    <dbl>  <dbl>     <dbl>      <dbl>       <dbl>
##  1  2005      1      1.06       0.08        0.98
##  2  2004      2      1.3        0.1         1.2 
##  3  2003      3      0.8        0.12        0.68
##  4  2002      4      0.7        0.2         0.5 
##  5  2001      5      0.3        0.14        0.16
##  6  2000      6      0.2        0.1         0.1 
##  7  1999      7      1.5        0.2         1.3 
##  8  1998      8      0.5        0.3         0.2 
##  9  1997      9      1.8        0.3         1.5 
## 10  1996     10      1.6        0.26        1.34
## # ... with 3,046 more rows
…
## Joining, by = "year"
## Joining, by = "year"

## # A tibble: 139 x 4
##     year   BSi charcoal  TEX86
##    <dbl> <dbl>    <dbl>  <dbl>
##  1  1996 -1.26   NA      0.752
##  2  1986 -1.34   NA      0.749
##  3  1976 -1.37   -0.45   0.733
##  4  1966 -1.41   -0.6    0.722
##  5  1956 -1.39   -0.78   0.72 
##  6  1946 -1.45   -0.580  0.71 
##  7  1937 -1.35   NA     NA    
##  8  1927 -1.11   NA     NA    
##  9  1918 -0.89   -0.69   0.709
## 10  1908 -0.06   -0.44  NA    
## # ... with 129 more rows
…
